Iteraciones,Tiempo
1,29.961
2,39.805
3,51.044
4,61.606
5,69.854
6,75.912
7,81.717
8,87.884
9,93.623
10,100.424
11,105.373
12,110.123
13,112.666
14,115.344
15,118.18
16,120.748
17,123.386
18,126.11
19,128.962
20,131.894
21,134.845
22,141.127
23,143.618
24,145.263
25,146.967
26,148.655
27,150.309
28,151.964
29,154.152
30,156.593
31,158.677
32,160.694
33,162.791
34,164.819
35,166.922
36,168.607
37,170.253
38,171.968
39,173.633
40,175.224
41,176.878
42,178.518
43,180.184
44,181.794
45,182.81
46,183.664
47,184.117
48,184.55
49,184.959
50,185.379
51,185.848
52,188.992
53,189.263
54,192.585
55,192.87
56,193.152
57,193.431
58,193.716
59,193.99
60,194.256
61,194.525
62,194.791
63,195.054
64,195.311
65,195.551
66,195.792
67,196.038
68,196.285
69,196.53
70,196.78
71,197.029
72,197.28
73,197.535
74,197.78
75,198.028
76,198.273
77,198.516
78,198.756
79,199.019
80,199.263
81,199.506
82,199.748
83,200.006
84,200.301
85,200.574
86,200.839
87,201.102
88,201.37
89,201.643
90,201.905
91,202.168
92,202.432
93,202.691
94,202.965
95,203.225
96,203.489
97,203.752
98,204.013
99,204.279
100,204.547
101,204.809
102,205.078
103,205.353
104,205.616
105,205.885
106,206.147
107,206.412
108,206.67
109,206.926
110,207.186
111,207.443
112,207.698
113,209.637
114,211.903
115,212.095
116,212.285
117,212.497
118,212.689
119,212.884
120,213.079
121,213.271
122,213.527
123,213.718
124,213.911
125,214.128
126,214.322
127,214.511
128,214.702
129,214.889
130,215.103
131,215.922
132,216.61
133,217.268
134,217.931
135,218.592
136,219.254
137,219.918
138,220.578
139,221.318
140,222.023
141,222.672
142,224.866
143,225.976
144,227.035
145,227.691
146,228.35
147,229.009
148,229.661
149,230.331
150,230.981
151,231.63
152,232.283
153,232.942
154,233.594
155,234.288
156,234.945
157,235.596
158,236.343
159,238.57
160,239.223
161,239.872
162,240.527
163,241.179
164,241.87
165,242.522
166,243.174
167,243.83
168,244.481
169,245.159
170,245.806
171,246.455
172,247.111
173,247.798
174,248.453
175,254.359
176,255.437
177,256.456
178,257.561
179,258.602
180,259.64
181,260.69
182,261.714
183,262.795
184,263.894
185,264.966
186,266.008
187,267.073
188,268.103
189,269.153
190,270.195
191,271.228
192,273.118
193,273.768
194,274.424
195,275.079
196,275.734
197,276.399
198,277.076
199,277.736
200,278.422
201,279.077
202,279.788
203,280.448
204,281.106
205,281.759
206,282.418
207,283.068
208,284.812
209,285.524
210,286.18
211,286.847
212,287.533
213,288.185
214,288.84
215,289.492
216,290.146
217,290.787
218,291.439
219,292.095
220,292.758
221,293.411
222,294.113
223,294.764
224,296.537
225,297.201
226,297.854
227,298.548
228,299.244
229,299.896
230,300.581
231,301.237
232,301.895
233,302.609
234,303.303
235,303.952
236,304.611
237,305.269
238,305.969
239,306.63
240,307.282
241,308.954
242,309.617
243,310.312
244,310.963
245,311.618
246,312.275
247,313.256
248,314.35
249,315.429
250,316.456
251,317.496
252,318.616
253,319.652
254,320.732
255,321.802
256,322.824
257,324.806
258,325.473
259,328.599
260,331.068
261,333.535
262,338.017
263,340.453
264,342.699
265,345.003
266,348.12
267,350.361
268,352.598
269,354.882
270,358.404
271,362.299
272,364.534
273,366.776
274,369.137
275,372.251
276,374.504
277,376.74
278,379.007
279,381.999
280,384.279
281,386.554
282,388.802
283,391.776
284,394.06
285,396.365
286,398.601
287,401.683
288,403.954
289,406.25
290,408.53
291,411.501
292,413.745
293,415.981
294,418.21
295,421.253
296,423.49
297,425.755
298,428.198
299,431.558
300,433.993
301,436.299
302,438.537
303,440.777
304,445.858
305,448.25
306,450.933
307,453.179
308,456.17
309,458.491
310,461.748
311,465.06
312,467.987
313,470.229
314,472.556
315,474.797
316,478.019
317,480.262
318,482.501
319,484.741
320,488.99
321,492.142
322,494.421
323,496.707
324,499.644
325,502.028
326,504.347
327,506.719
328,509.687
329,511.949
330,514.185
331,516.439
332,519.368
333,521.653
334,523.886
335,526.242
336,528.671
337,533.397
338,535.903
339,538.358
340,540.846
341,543.997
342,546.772
343,549.145
344,551.589
345,554.573
346,556.812
347,559.13
348,561.372
349,564.291
350,566.532
351,568.768
352,571.01
353,573.948
354,576.196
355,578.479
356,580.716
357,583.645
358,585.944
359,588.214
360,590.476
361,592.726
362,595.706
363,597.944
364,600.192
365,602.481
366,607.256
367,609.911
368,612.345
369,614.715
370,617.822
371,620.131
372,622.372
373,624.628
374,628.967
375,631.984
376,634.235
377,636.521
378,639.483
379,641.74
380,644.029
381,646.274
382,649.243
383,651.489
384,653.731
385,656.021
386,659.405
387,663.167
388,665.427
389,667.735
390,671.417
391,673.658
392,675.851
393,678.055
394,680.222
395,683.396
396,685.609
397,687.811
398,690.032
399,693.025
400,695.188
401,697.425
402,699.593
403,703.956
404,707.003
405,709.371
406,711.686
407,714.647
408,716.81
409,718.974
410,721.132
411,724.331
412,726.588
413,728.748
414,730.909
415,734.029
416,736.305
417,738.517
418,740.755
419,743.681
420,745.888
421,748.054
422,750.215
423,752.377
424,756.538
425,759.185
426,761.346
427,763.514
428,766.497
429,768.654
430,770.813
431,772.984
432,775.916
433,778.073
434,780.236
435,782.397
436,785.373
437,787.599
438,789.789
439,791.95
440,794.962
441,797.166
442,799.327
443,801.522
444,805.078
445,808.386
446,810.554
447,812.718
448,815.681
449,817.88
450,820.1
451,822.455
452,824.942
453,828.43
454,830.666
455,832.829
456,834.991
457,838.124
458,840.314
459,842.797
460,845.265
461,848.201
462,850.363
463,852.55
464,854.838
465,858.062
466,860.231
467,862.393
468,864.556
469,867.787
470,870.116
471,872.348
472,874.569
473,878.312
474,881.845
475,884.076
476,886.304
477,889.218
478,891.398
479,893.57
480,895.747
481,897.955
482,900.928
483,903.184
484,905.673
485,907.913
486,910.793
487,913.006
488,915.171
489,917.378
490,920.359
491,922.529
492,924.766
493,926.93
494,930.998
495,934.054
496,936.267
497,938.444
498,941.459
499,943.639
500,945.806
